{
  "type": "panel",
  "name": "Plugin list",
  "id": "pluginlist",

  "skipDataQuery": true,

  "info": {
    "description": "Plugin List",
    "author": {
      "name": "GitLab",
      "url": "https://gitlab.com"
    },
    "logos": {
      "small": "img/icn-dashlist-panel.svg",
      "large": "img/icn-dashlist-panel.svg"
    }
  }
}
