// Jest Snapshot v1, https://goo.gl/fbAQLP

exports[`Render should render children 1`] = `
<div
  className="sidemenu-item dropdown dropup"
>
  <a
    className="sidemenu-link"
  >
    <span
      className="icon-circle sidemenu-icon"
    />
  </a>
  <ul
    className="dropdown-menu dropdown-menu--sidemenu"
    role="menu"
  >
    <li
      key="undefined-0"
    >
      <a
        rel="noopener"
      />
    </li>
    <li
      key="undefined-1"
    >
      <a
        rel="noopener"
      />
    </li>
    <li
      key="undefined-2"
    >
      <a
        rel="noopener"
      />
    </li>
    <li
      key="undefined-3"
    >
      <a
        rel="noopener"
      />
    </li>
    <li
      className="side-menu-header"
    >
      <span
        className="sidemenu-item-text"
      />
    </li>
  </ul>
</div>
`;

exports[`Render should render component 1`] = `
<div
  className="sidemenu-item dropdown dropup"
>
  <a
    className="sidemenu-link"
  >
    <span
      className="icon-circle sidemenu-icon"
    />
  </a>
  <ul
    className="dropdown-menu dropdown-menu--sidemenu"
    role="menu"
  >
    <li
      className="side-menu-header"
    >
      <span
        className="sidemenu-item-text"
      >
        Hello
      </span>
    </li>
  </ul>
</div>
`;

exports[`Render should render group switcher 1`] = `
<div
  className="sidemenu-item dropdown dropup"
>
  <a
    className="sidemenu-link"
  >
    <span
      className="icon-circle sidemenu-icon"
    />
  </a>
  <ul
    className="dropdown-menu dropdown-menu--sidemenu"
    role="menu"
  >
    <li
      className="sidemenu-org-switcher"
    >
      <a
        onClick={[Function]}
      >
        <div>
          <div
            className="sidemenu-org-switcher__org-current"
          >
            Current Group:
          </div>
          <div
            className="sidemenu-org-switcher__org-name"
          >
            Grafana
          </div>
        </div>
        <div
          className="sidemenu-org-switcher__switch"
        >
          <Icon
            className="css-f8is2k"
            name="arrow-random"
          />
          Switch
        </div>
      </a>
    </li>
    <GroupSwitcher
      onDismiss={[Function]}
    />
    <li
      className="side-menu-header"
    >
      <span
        className="sidemenu-item-text"
      />
    </li>
  </ul>
</div>
`;

exports[`Render should render subtitle 1`] = `
<div
  className="sidemenu-item dropdown dropup"
>
  <a
    className="sidemenu-link"
  >
    <span
      className="icon-circle sidemenu-icon"
    />
  </a>
  <ul
    className="dropdown-menu dropdown-menu--sidemenu"
    role="menu"
  >
    <li
      className="sidemenu-subtitle"
    >
      <span
        className="sidemenu-item-text"
      >
        subtitle
      </span>
    </li>
    <li
      className="side-menu-header"
    >
      <span
        className="sidemenu-item-text"
      />
    </li>
  </ul>
</div>
`;
