{
  "type": "panel",
  "name": "Bar chart",
  "id": "barchart",

  "state": "alpha",

  "info": {
    "author": {
      "name": "GitLab",
      "url": "https://gitlab.com"
    },
    "logos": {
      "small": "img/barchart.svg",
      "large": "img/barchart.svg"
    }
  }
}
