{
  "type": "panel",
  "name": "Node Graph",
  "id": "nodeGraph",
  "state": "beta",

  "info": {
    "author": {
      "name": "GitLab",
      "url": "https://gitlab.com"
    },
    "logos": {
      "small": "img/icn-node-graph.svg",
      "large": "img/icn-node-graph.svg"
    }
  }
}
