{
  "type": "panel",
  "name": "Annotations list",
  "id": "annolist",
  "state": "alpha",

  "skipDataQuery": true,

  "info": {
    "description": "List annotations",
    "author": {
      "name": "GitLab",
      "url": "https://gitlab.com"
    },
    "logos": {
      "small": "img/icn-annolist-panel.svg",
      "large": "img/icn-annolist-panel.svg"
    }
  }
}
