{
  "type": "panel",
  "name": "Text",
  "id": "text",

  "skipDataQuery": true,

  "info": {
    "author": {
      "name": "GitLab",
      "url": "https://gitlab.com"
    },
    "logos": {
      "small": "img/icn-text-panel.svg",
      "large": "img/icn-text-panel.svg"
    }
  }
}
