{
  "type": "panel",
  "name": "Graph",
  "id": "graph",

  "info": {
    "description": "Graph Panel",
    "author": {
      "name": "GitLab",
      "url": "https://gitlab.com"
    },
    "logos": {
      "small": "img/icn-graph-panel.svg",
      "large": "img/icn-graph-panel.svg"
    }
  }
}
