{
  "type": "panel",
  "name": "Welcome",
  "id": "welcome",

  "skipDataQuery": true,
  "hideFromList": true,

  "info": {
    "author": {
      "name": "GitLab",
      "url": "https://gitlab.com"
    },
    "logos": {
      "small": "img/icn-dashlist-panel.svg",
      "large": "img/icn-dashlist-panel.svg"
    }
  }
}
